,0,1,2,3,Loc,Predicted,Actual,Correct,True Positive,False Positive,True Negative,False Negative
0,148.294316328085,154.39834526853,112.761596356241,45.5611397578272,3,1,1,1,1,,,
0,0,0,0,8.23223304447832,,,,,,,,
1,0.26870057347914,37.3784417358164,3.85521935067759,39.8158054491442,0,0,0,1,,,1,
1,0.0119553750486004,0,0,0,,,,,,,,
2,1.64839089359369,37.6509113333705,1.71011411030092,38.5873509184224,2,1,1,1,1,,,
2,0,0,0.758763644595441,0,,,,,,,,
3,24.0464238371301,0,2.63436179219038,52.602606320697,1,0,0,1,,,1,
3,0,0,0.0649337768554688,0,,,,,,,,
4,24.022883642125,0,3.09616885742171,53.5709129693206,1,0,0,1,,,1,
4,0,0,0,0,,,,,,,,
5,0.752723495441647,38.000483364066,3.28503529192,37.9143095804258,2,1,0,0,,1,,
5,0,0,0.725397138714689,0,,,,,,,,
6,5.40711427875284,37.1408737749268,5.56138860304211,35.8241468846838,0,0,0,1,,,1,
6,0,0,5.55934857880933,0,,,,,,,,
7,2.06759811598632,37.3862776778915,3.74297867125463,38.9589310218859,0,0,0,1,,,1,
7,0.896393166883401,0,0,0,,,,,,,,
8,24.0196224875746,0,7.18269653383765,53.9410499646911,1,0,0,1,,,1,
8,0,0,0.251194000244141,0,,,,,,,,
9,0,38.5729305717168,6.14549489339647,34.6769456062572,0,0,0,1,,,1,
9,0,0.0464417809615487,1.81350201557209,0,,,,,,,,
10,1.09601547712167,36.5786550462787,3.52013301560563,40.1495059882149,2,1,0,0,,1,,
10,0.425311687637255,0,0.251194000244141,0,,,,,,,,
11,24.1107513919005,0,12.2793487693842,52.4939119586109,1,0,0,1,,,1,
11,0,0,0,0,,,,,,,,
12,34.9840664592705,49.8398932134498,12.4790830216521,9.68666144382657,3,1,1,1,1,,,
12,0,0,0,0,,,,,,,,
13,137.501734391974,131.446269410607,114.493930285076,45.5194757436129,3,1,1,1,1,,,
13,0,0,0,0,,,,,,,,
14,6.2306326785752,39.0311538614942,2.36935387269668,33.0849901568315,2,1,1,1,1,,,
14,0,0,0.439619278301249,0,,,,,,,,
15,0.265250980369069,37.985787938102,3.18027228581143,39.5433520359799,0,0,0,1,,,1,
15,0,0,0,0,,,,,,,,
16,27.0535805735455,0,4.9827474391655,56.2787879690332,1,0,0,1,,,1,
16,0,0,0,0,,,,,,,,
17,24.0387794103346,0,6.21422969128604,53.4834956850619,1,0,0,1,,,1,
17,0,0,0.775664662666674,0,,,,,,,,
18,27.0496477668172,0,4.94461903977903,56.6625036674696,1,0,0,1,,,1,
18,0,0,0,0,,,,,,,,
19,1.58165237050105,24.0302448420985,31.9332619626625,40.1703487849153,0,0,0,1,,,1,
19,0.461565142320873,0,1.07067021688857,0,,,P,,TP,FP,TN,FN
,,,,,,,5,18,5,2,13,0
,,,,,,,,,,,,
,,,,,Sensitivity = 1,,,,,,,
,,,,,,,,,,,,
,,,,,Specificity,0.866666666666667,,,,,,
,,,,,,,,,,,,
,,,,,Precision,1,,,,,,
,,,,,F1 Score,,,,,,,
