,count,mean,std,min,25%,50%,75%,max
Sector_score,300.0,8.368566666666666,15.777580076036418,1.85,2.37,3.41,3.89,59.85
LOCATION_ID,300.0,15.81,10.655469492253001,1.0,8.0,15.0,20.0,44.0
PARA_A,300.0,4.7330353333333335,6.809727858952579,0.0,1.19,3.0300000000000002,6.3125,85.0
Score_A,300.0,0.484,0.15988290029274568,0.2,0.4,0.6,0.6,0.6
Risk_A,300.0,2.762893733333333,4.126731871366157,0.0,0.476,1.818,3.7875,51.0
PARA_B,300.0,22.427233333333334,29.761205832215772,0.0,0.82,7.335,37.7725,144.39
Score_B,300.0,0.44600000000000006,0.1810892350107794,0.2,0.2,0.6,0.6,0.6
Risk_B,300.0,13.249093333333333,17.980873468222363,0.0,0.164,3.5309999999999997,22.6635,86.634
TOTAL,300.0,27.078268666666663,31.566883929106208,0.0,3.525,11.575,44.665000000000006,148.23
numbers,300.0,5.166666666666667,0.3992747047523453,5.0,5.0,5.0,5.0,9.0
Score_B.1,300.0,0.258,0.11782306330889399,0.2,0.2,0.2,0.2,0.6
Risk_C,300.0,1.375,0.7944677021540185,1.0,1.0,1.0,1.0,5.4
Money_Value,300.0,24.6564,44.409965343144144,0.0,0.6575,9.489999999999998,26.9875,397.31
Score_MV,300.0,0.4246666666666667,0.18303888384407604,0.2,0.2,0.4,0.6,0.6
Risk_D,300.0,14.456013333333333,26.794790578399564,0.0,0.1315,3.796,16.192500000000003,238.386
District_Loss,300.0,3.1266666666666665,1.706946918182832,2.0,2.0,2.0,4.0,6.0
PROB,300.0,0.21466666666666664,0.057117688357459714,0.2,0.2,0.2,0.2,0.6
RiSk_E,300.0,0.6693333333333333,0.40728264477059006,0.4,0.4,0.4,0.9,2.4
History,300.0,0.26,0.8213700928518386,0.0,0.0,0.0,0.0,9.0
Prob,300.0,0.24133333333333332,0.10161680704392143,0.2,0.2,0.2,0.2,0.6
Risk_F,300.0,0.13333333333333333,0.476142058376214,0.0,0.0,0.0,0.0,5.4
Score,300.0,3.531333333333333,0.7692794410465845,2.2,2.8,3.6,4.2,5.2
Inherent_Risk,300.0,32.657300400000004,35.101037591778855,2.2,7.133,18.811999999999998,50.764,255.976
CONTROL_RISK,300.0,0.8026666666666668,0.6313913781987905,0.4,0.4,0.4,1.2,5.8
Detection_Risk,300.0,0.5,0.0,0.5,0.5,0.5,0.5,0.5
Audit_Risk,300.0,13.217764906666668,24.006474491092717,1.0144,1.8714,5.1546,14.6302,222.0096
Risk,300.0,1.0,0.0,1.0,1.0,1.0,1.0,1.0
