\relax 
\providecommand\hyper@newdestlabel[2]{}
\providecommand\HyperFirstAtBeginDocument{\AtBeginDocument}
\HyperFirstAtBeginDocument{\ifx\hyper@anchor\@undefined
\global\let\oldcontentsline\contentsline
\gdef\contentsline#1#2#3#4{\oldcontentsline{#1}{#2}{#3}}
\global\let\oldnewlabel\newlabel
\gdef\newlabel#1#2{\newlabelxx{#1}#2}
\gdef\newlabelxx#1#2#3#4#5#6{\oldnewlabel{#1}{{#2}{#3}}}
\AtEndDocument{\ifx\hyper@anchor\@undefined
\let\contentsline\oldcontentsline
\let\newlabel\oldnewlabel
\fi}
\fi}
\global\let\hyper@last\relax 
\gdef\HyperFirstAtBeginDocument#1{#1}
\providecommand\HyField@AuxAddToFields[1]{}
\providecommand\HyField@AuxAddToCoFields[2]{}
\abx@aux@refcontext{anyt/global//global/global}
\abx@aux@cite{0}{gtda}
\abx@aux@segm{0}{0}{gtda}
\abx@aux@cite{0}{KeplerMapper_JOSS}
\abx@aux@segm{0}{0}{KeplerMapper_JOSS}
\abx@aux@cite{0}{KeplerMapper_v1.4.1-Zenodo}
\abx@aux@segm{0}{0}{KeplerMapper_v1.4.1-Zenodo}
\abx@aux@cite{0}{TDA_info_extract}
\abx@aux@segm{0}{0}{TDA_info_extract}
\@writefile{toc}{\contentsline {section}{\numberline {1}Introduction to Mapper}{1}{section.1}\protected@file@percent }
\newlabel{MapperAlgo}{{1}{1}{Introduction to Mapper}{section.1}{}}
\@writefile{lof}{\contentsline {figure}{\numberline {1}{\ignorespaces Mapper Algorithm}}{1}{figure.1}\protected@file@percent }
\abx@aux@cite{0}{misc_audit_data_475}
\abx@aux@segm{0}{0}{misc_audit_data_475}
\@writefile{toc}{\contentsline {section}{\numberline {2}Data}{2}{section.2}\protected@file@percent }
\@writefile{toc}{\contentsline {subsection}{\numberline {2.1}Summary}{2}{subsection.2.1}\protected@file@percent }
\@writefile{toc}{\contentsline {subsection}{\numberline {2.2}Descriptive Information}{2}{subsection.2.2}\protected@file@percent }
\@writefile{toc}{\contentsline {section}{\numberline {3}Data Exploration and Pre-processing}{2}{section.3}\protected@file@percent }
\abx@aux@cite{0}{KeplerMapper_v1.4.1-Zenodo}
\abx@aux@segm{0}{0}{KeplerMapper_v1.4.1-Zenodo}
\@writefile{lof}{\contentsline {figure}{\numberline {2}{\ignorespaces Head of the dataframe}}{3}{figure.2}\protected@file@percent }
\@writefile{lof}{\contentsline {figure}{\numberline {3}{\ignorespaces Class Distribution}}{3}{figure.3}\protected@file@percent }
\@writefile{toc}{\contentsline {section}{\numberline {4}TDA driven insights}{3}{section.4}\protected@file@percent }
\abx@aux@cite{0}{gtda}
\abx@aux@segm{0}{0}{gtda}
\@writefile{lof}{\contentsline {figure}{\numberline {4}{\ignorespaces Reds are the risky nodes, dark greens are non risky. The greener the node, the more non risky members it has.}}{4}{figure.4}\protected@file@percent }
\@writefile{lof}{\contentsline {figure}{\numberline {5}{\ignorespaces Data plotted on mapper projected on the target variable}}{5}{figure.5}\protected@file@percent }
\abx@aux@nociteall
\newlabel{summary_table}{{4}{6}{TDA driven insights}{figure.5}{}}
\@writefile{lot}{\contentsline {table}{\numberline {1}{\ignorespaces Comparing the different nodes}}{6}{table.1}\protected@file@percent }
\abx@aux@read@bbl@mdfivesum{48AD644A87D2F67365840C2F96131A8F}
\abx@aux@defaultrefcontext{0}{TDA_apps}{anyt/global//global/global}
\abx@aux@defaultrefcontext{0}{gtda}{anyt/global//global/global}
\abx@aux@defaultrefcontext{0}{misc_audit_data_475}{anyt/global//global/global}
\abx@aux@defaultrefcontext{0}{TDA_info_extract}{anyt/global//global/global}
\abx@aux@defaultrefcontext{0}{KeplerMapper_JOSS}{anyt/global//global/global}
\abx@aux@defaultrefcontext{0}{KeplerMapper_v1.4.1-Zenodo}{anyt/global//global/global}
\gdef \@abspage@last{7}
